Package for making crosswalks among different Occupational codes • occupationcross
…
Let´s use a sample database from a Mexico´s household survey (Encuesta Nacional de Ocupación y Empleo) already embedded in this package. This database contains a variable named “p3” corresponding to SINCO 2011 (Sistema Nacional de Clasificación de Ocupaciones - 2011) occupational codes

toy_base_mexico
#> # A tibble: 200 x 8
#>      sex t_loc clase2  tue1 pos_ocu   per   fac    p3
#>    <dbl> <dbl>  <dbl> <dbl>   <dbl> <dbl> <dbl> <dbl>
#>  1     1     1      1     4       2   119   435  7121
#>  2     2     1      1     1       1   119   542  5116
#>  3     2     1      1     3       1   119   173  9611
#>  4     2     3      0     0       0   119   411    NA
#>  5     1     1      3     0       0   119   224    NA
#>  6     2     1      0     0       0   119   104    NA
#>  7     2     1      0     0       0   119   314    NA
#>  8     2     1      4     0       0   119   104    NA
#>  9     1     4      1     1       3   119   450  6111
#> 10     2     4      1     3       3   119   293  4111
#> # ... with 190 more rows
…
- The add_skill parameter allows you to add a new variable identifying skill level of each occupation according to ISCO-08 classification of major groups.

- The code_titles parameter allows you to get the occupation names both from the origin classification and isco 08 classification

crossed_base <- reclassify_to_isco08(base = toy_base_mexico,
                                     variable = p3,
                                     classif_origin = "SINCO2011",
                                     add_major_groups = T,
                                     add_skill = T,
                                     code_titles = T)

crossed_base %>% 
  select(p3,ISCO.08,major_group)
#> # A tibble: 200 x 3
#>       p3 ISCO.08 major_group                                          
#>    <dbl> <chr>   <fct>                                                
#>  1  7121 7112    7. Craft and Related Trades Workers                  
#>  2  5116 5131    5. Services and Sales Workers                        
#>  3  9611 9111    9. Elementary Occupations                            
#>  4    NA 0000    <NA>                                                 
#>  5    NA 0000    <NA>                                                 
#>  6    NA 0000    <NA>                                                 
#>  7    NA 0000    <NA>                                                 
#>  8    NA 0000    <NA>                                                 
#>  9  6111 6111    6. Skilled Agricultural, Forestry and Fishery Workers
#> 10  4111 5221    5. Services and Sales Workers                        
#> # ... with 190 more rows
…
